verilog/hardware/processor/iverilog/adder/DSPalu.vcd
$date
	Wed May 26 11:33:45 2021
$end
$version
	Icarus Verilog
$end
$timescale
	1s
$end
$scope module top $end
$var wire 1 ! Branch_Enable $end
$var wire 7 " AluCtl_wire [6:0] $end
$var wire 32 # ALUOut [31:0] $end
$var reg 32 $ A [31:0] $end
$var reg 32 % B [31:0] $end
$var reg 4 & FuncCode [3:0] $end
$var reg 7 ' Opcode [6:0] $end
$var reg 1 ( clk $end
$scope module aluCtrl_inst $end
$var wire 4 ) FuncCode [3:0] $end
$var wire 7 * Opcode [6:0] $end
$var reg 7 + ALUCtl [6:0] $end
$upscope $end
$scope module alu_inst $end
$var wire 32 , A [31:0] $end
$var wire 7 - ALUctl [6:0] $end
$var wire 32 . B [31:0] $end
$var wire 1 / carry $end
$var wire 32 0 DSPsub [31:0] $end
$var wire 32 1 DSPadd [31:0] $end
$var reg 32 2 ALUOut [31:0] $end
$var reg 1 ! Branch_Enable $end
$scope module alu_adder $end
$var wire 32 3 input1 [31:0] $end
$var wire 32 4 input2 [31:0] $end
$var wire 32 5 out [31:0] $end
$scope module i_sbmac16 $end
$var wire 16 6 A [15:0] $end
$var wire 1 7 ACCUMCI $end
$var wire 1 8 ADDSUBBOT $end
$var wire 1 9 ADDSUBTOP $end
$var wire 1 : AHOLD $end
$var wire 16 ; B [15:0] $end
$var wire 1 < BHOLD $end
$var wire 16 = C [15:0] $end
$var wire 1 > CE $end
$var wire 1 ? CHOLD $end
$var wire 1 @ CI $end
$var wire 1 A CLK $end
$var wire 1 B CO $end
$var wire 16 C D [15:0] $end
$var wire 1 D DHOLD $end
$var wire 1 E HCI $end
$var wire 1 F IRSTBOT $end
$var wire 1 G IRSTTOP $end
$var wire 1 H LCI $end
$var wire 1 I OHOLDBOT $end
$var wire 1 J OHOLDTOP $end
$var wire 1 K OLOADBOT $end
$var wire 1 L OLOADTOP $end
$var wire 1 M ORSTBOT $end
$var wire 1 N ORSTTOP $end
$var wire 16 O Oh [15:0] $end
$var wire 16 P Ol [15:0] $end
$var wire 1 Q SIGNEXTIN $end
$var wire 1 R clock $end
$var wire 16 S iA [15:0] $end
$var wire 16 T iB [15:0] $end
$var wire 16 U iC [15:0] $end
$var wire 16 V iD [15:0] $end
$var wire 32 W iH [31:0] $end
$var wire 16 X iP [15:0] $end
$var wire 16 Y iQ [15:0] $end
$var wire 16 Z iR [15:0] $end
$var wire 16 [ iS [15:0] $end
$var wire 16 \ iW [15:0] $end
$var wire 16 ] iX [15:0] $end
$var wire 16 ^ iY [15:0] $end
$var wire 16 _ iZ [15:0] $end
$var wire 16 ` p_Al_Bl [15:0] $end
$var wire 16 a p_Al_Bh [15:0] $end
$var wire 16 b p_Ah_Bl [15:0] $end
$var wire 16 c p_Ah_Bh [15:0] $end
$var wire 32 d iL [31:0] $end
$var wire 24 e iK_e [23:0] $end
$var wire 16 f iK [15:0] $end
$var wire 24 g iJ_e [23:0] $end
$var wire 16 h iJ [15:0] $end
$var wire 16 i iG [15:0] $end
$var wire 16 j iF [15:0] $end
$var wire 16 k YZ [15:0] $end
$var wire 16 l XW [15:0] $end
$var wire 1 m SIGNEXTOUT $end
$var wire 32 n O [31:0] $end
$var wire 1 o LCO $end
$var wire 16 p Bl [15:0] $end
$var wire 16 q Bh [15:0] $end
$var wire 16 r Al [15:0] $end
$var wire 16 s Ah [15:0] $end
$var wire 1 t ACCUMCO $end
$var reg 16 u rA [15:0] $end
$var reg 16 v rB [15:0] $end
$var reg 16 w rC [15:0] $end
$var reg 16 x rD [15:0] $end
$var reg 16 y rF [15:0] $end
$var reg 16 z rG [15:0] $end
$var reg 32 { rH [31:0] $end
$var reg 16 | rJ [15:0] $end
$var reg 16 } rK [15:0] $end
$var reg 16 ~ rQ [15:0] $end
$var reg 16 !" rS [15:0] $end
$upscope $end
$upscope $end
$scope module alu_subbtractor $end
$var wire 32 "" input1 [31:0] $end
$var wire 32 #" input2 [31:0] $end
$var wire 32 $" out [31:0] $end
$var wire 1 / carry $end
$scope module i_sbmac16 $end
$var wire 16 %" A [15:0] $end
$var wire 1 &" ACCUMCI $end
$var wire 1 '" ADDSUBBOT $end
$var wire 1 (" ADDSUBTOP $end
$var wire 1 )" AHOLD $end
$var wire 16 *" B [15:0] $end
$var wire 1 +" BHOLD $end
$var wire 16 ," C [15:0] $end
$var wire 1 -" CE $end
$var wire 1 ." CHOLD $end
$var wire 1 /" CI $end
$var wire 1 0" CLK $end
$var wire 1 / CO $end
$var wire 16 1" D [15:0] $end
$var wire 1 2" DHOLD $end
$var wire 1 3" HCI $end
$var wire 1 4" IRSTBOT $end
$var wire 1 5" IRSTTOP $end
$var wire 1 6" LCI $end
$var wire 1 7" OHOLDBOT $end
$var wire 1 8" OHOLDTOP $end
$var wire 1 9" OLOADBOT $end
$var wire 1 :" OLOADTOP $end
$var wire 1 ;" ORSTBOT $end
$var wire 1 <" ORSTTOP $end
$var wire 16 =" Oh [15:0] $end
$var wire 16 >" Ol [15:0] $end
$var wire 1 ?" SIGNEXTIN $end
$var wire 1 @" clock $end
$var wire 16 A" iA [15:0] $end
$var wire 16 B" iB [15:0] $end
$var wire 16 C" iC [15:0] $end
$var wire 16 D" iD [15:0] $end
$var wire 32 E" iH [31:0] $end
$var wire 16 F" iP [15:0] $end
$var wire 16 G" iQ [15:0] $end
$var wire 16 H" iR [15:0] $end
$var wire 16 I" iS [15:0] $end
$var wire 16 J" iW [15:0] $end
$var wire 16 K" iX [15:0] $end
$var wire 16 L" iY [15:0] $end
$var wire 16 M" iZ [15:0] $end
$var wire 16 N" p_Al_Bl [15:0] $end
$var wire 16 O" p_Al_Bh [15:0] $end
$var wire 16 P" p_Ah_Bl [15:0] $end
$var wire 16 Q" p_Ah_Bh [15:0] $end
$var wire 32 R" iL [31:0] $end
$var wire 24 S" iK_e [23:0] $end
$var wire 16 T" iK [15:0] $end
$var wire 24 U" iJ_e [23:0] $end
$var wire 16 V" iJ [15:0] $end
$var wire 16 W" iG [15:0] $end
$var wire 16 X" iF [15:0] $end
$var wire 16 Y" YZ [15:0] $end
$var wire 16 Z" XW [15:0] $end
$var wire 1 [" SIGNEXTOUT $end
$var wire 32 \" O [31:0] $end
$var wire 1 ]" LCO $end
$var wire 16 ^" Bl [15:0] $end
$var wire 16 _" Bh [15:0] $end
$var wire 16 `" Al [15:0] $end
$var wire 16 a" Ah [15:0] $end
$var wire 1 b" ACCUMCO $end
$var reg 16 c" rA [15:0] $end
$var reg 16 d" rB [15:0] $end
$var reg 16 e" rC [15:0] $end
$var reg 16 f" rD [15:0] $end
$var reg 16 g" rF [15:0] $end
$var reg 16 h" rG [15:0] $end
$var reg 32 i" rH [31:0] $end
$var reg 16 j" rJ [15:0] $end
$var reg 16 k" rK [15:0] $end
$var reg 16 l" rQ [15:0] $end
$var reg 16 m" rS [15:0] $end
$upscope $end
$upscope $end
$upscope $end
$upscope $end
$enddefinitions $end
#0
$dumpvars
bx m"
bx l"
bx k"
bx j"
bx i"
bx h"
bx g"
bx f"
bx e"
bx d"
bx c"
0b"
b0 a"
b0 `"
b0 _"
b0 ^"
0]"
b0 \"
0["
b1111111111111111 Z"
b1111111111111111 Y"
bx X"
bx W"
bx V"
b0xxxxxxxxxxxxxxxx U"
bx T"
b0xxxxxxxxxxxxxxxx S"
bx R"
b0 Q"
b0 P"
b0 O"
b0 N"
b0 M"
b0 L"
b0 K"
b0 J"
bx I"
b0 H"
bx G"
b0 F"
bx E"
b0 D"
b0 C"
b0 B"
b0 A"
x@"
0?"
b0 >"
b0 ="
0<"
0;"
0:"
09"
08"
07"
06"
05"
04"
03"
02"
b0 1"
z0"
0/"
0."
0-"
b0 ,"
0+"
b0 *"
0)"
1("
1'"
0&"
b0 %"
b0 $"
b0 #"
b0 ""
bx !"
bx ~
bx }
bx |
bx {
bx z
bx y
bx x
bx w
bx v
bx u
0t
b0 s
b0 r
b0 q
b0 p
0o
b0 n
0m
b0 l
b0 k
bx j
bx i
bx h
b0xxxxxxxxxxxxxxxx g
bx f
b0xxxxxxxxxxxxxxxx e
bx d
b0 c
b0 b
b0 a
b0 `
b0 _
b0 ^
b0 ]
b0 \
bx [
b0 Z
bx Y
b0 X
bx W
b0 V
b0 U
b0 T
b0 S
xR
0Q
b0 P
b0 O
0N
0M
0L
0K
0J
0I
0H
0G
0F
0E
0D
b0 C
0B
zA
0@
0?
0>
b0 =
0<
b0 ;
0:
09
08
07
b0 6
b0 5
b0 4
b0 3
b0 2
b0 1
b0 0
1/
b0 .
b1111 -
b0 ,
b1111 +
b0 *
b0 )
0(
b0 '
b0 &
b0 %
b0 $
b0 #
b1111 "
0!
$end
#1
1(
#2
0(
#3
1(
#4
0(
#5
b1111111111111111 ="
b1111111111111111 F"
0/
b11111111111111111111111110111010 0
b11111111111111111111111110111010 $"
b11111111111111111111111110111010 \"
b1111111110111010 >"
b1111111110111010 H"
b0 Z"
1b"
b1100100 1
b1100100 5
b1100100 n
b1100100 P
b1100100 Z
b101 #
b101 2
b1000101 Y"
13"
1]"
b1010101 ^"
b1100100 k
b1111 p
b0 "
b0 +
b0 -
b1010101 ^
b1010101 V
b1010101 C
b1010101 M"
b1010101 B"
b1010101 *"
b1111 _
b1111 T
b1111 ;
b1111 L"
b1111 D"
b1111 1"
1(
b110011 '
b110011 *
b111 &
b111 )
b1010101 %
b1010101 .
b1010101 4
b1010101 #"
b1111 $
b1111 ,
b1111 3
b1111 ""
#6
0(
#7
1(
#8
0(
#9
1(
#10
b0 ="
b0 F"
1/
b1111111111111111 Z"
0b"
b10011010100001 0
b10011010100001 $"
b10011010100001 \"
b10011010100001 >"
b10011010100001 H"
b10011101111111 1
b10011101111111 5
b10011101111111 n
b10011101111111 P
b10011101111111 Z
03"
0]"
b1101100101011110 Y"
b1101111 ^"
b10011101111111 k
b100111 q
b10000 p
b1101111 ^
b1101111 V
b1101111 C
b1101111 M"
b1101111 B"
b1101111 *"
b10011100010000 _
b10011100010000 T
b10011100010000 ;
b10011100010000 L"
b10011100010000 D"
b10011100010000 1"
b0 #
b0 2
0(
b1101111 %
b1101111 .
b1101111 4
b1101111 #"
b10011100010000 $
b10011100010000 ,
b10011100010000 3
b10011100010000 ""
#11
1(
#12
0(
#13
1(
#14
0(
#15
b10011101111111 #
b10011101111111 2
b10 "
b10 +
b10 -
1(
b0 &
b0 )
#16
0(
#17
1(
#18
0(
#19
1(
#20
0(
#21
1(
#22
0(
#23
1(
#24
0(
#25
b1 O
b1 X
b10000000000000001 #
b10000000000000001 2
b1 l
b1111111111111111 ="
b1111111111111111 F"
0/
b11111111111111110000000000000001 0
b11111111111111110000000000000001 $"
b11111111111111110000000000000001 \"
b1 >"
b1 H"
b10000000000000001 1
b10000000000000001 5
b10000000000000001 n
b1 P
b1 Z
b0 Z"
1b"
b1 `"
b1111111111111110 Y"
b0 ^"
b1 k
b0 q
b1 p
b1 \
b1 U
b1 =
b0 ^
b0 V
b0 C
b1 K"
b1 A"
b1 %"
b0 M"
b0 B"
b0 *"
b1 _
b1 T
b1 ;
b1 L"
b1 D"
b1 1"
1(
b10000000000000000 %
b10000000000000000 .
b10000000000000000 4
b10000000000000000 #"
b1 $
b1 ,
b1 3
b1 ""
#26
0(
#27
1(
#28
0(
#29
1(
#30
b0 O
b0 X
b0 #
b0 2
b0 >"
b0 H"
b0 l
b0 0
b0 $"
b0 \"
b0 ="
b0 F"
1/
b0 1
b0 5
b0 n
b0 P
b0 Z
b1111111111111111 Y"
b1111111111111111 Z"
0b"
b0 `"
b0 k
b0 p
b0 \
b0 U
b0 =
b0 K"
b0 A"
b0 %"
b0 _
b0 T
b0 ;
b0 L"
b0 D"
b0 1"
0(
b0 %
b0 .
b0 4
b0 #"
b0 $
b0 ,
b0 3
b0 ""
#31
1(
#32
0(
#33
1(
#34
0(
#35
b110000000000 #
b110000000000 2
b101000000000 0
b101000000000 $"
b101000000000 \"
b101000000000 >"
b101000000000 H"
b110000000000 1
b110000000000 5
b110000000000 n
b110000000000 P
b110000000000 Z
b1111010111111111 Y"
b1 _"
b110000000000 k
b1011 q
b100000000 ^
b100000000 V
b100000000 C
b100000000 M"
b100000000 B"
b100000000 *"
b101100000000 _
b101100000000 T
b101100000000 ;
b101100000000 L"
b101100000000 D"
b101100000000 1"
1(
b100000000 %
b100000000 .
b100000000 4
b100000000 #"
b101100000000 $
b101100000000 ,
b101100000000 3
b101100000000 ""
#36
0(
#37
1(
#38
0(
#39
1(
#40
b11111111111111110 #
b11111111111111110 2
b1 O
b1 X
b0 0
b0 $"
b0 \"
b0 >"
b0 H"
b11111111111111110 1
b11111111111111110 5
b11111111111111110 n
b1111111111111110 P
b1111111111111110 Z
b1 l
b1111111111111111 Y"
b11111111 _"
b11111111 ^"
b1111111111111110 k
1E
1o
b11111111 q
b11111111 p
b1111111111111111 ^
b1111111111111111 V
b1111111111111111 C
b1111111111111111 M"
b1111111111111111 B"
b1111111111111111 *"
b1111111111111111 _
b1111111111111111 T
b1111111111111111 ;
b1111111111111111 L"
b1111111111111111 D"
b1111111111111111 1"
0(
b1111111111111111 %
b1111111111111111 .
b1111111111111111 4
b1111111111111111 #"
b1111111111111111 $
b1111111111111111 ,
b1111111111111111 3
b1111111111111111 ""
#41
1(
#42
0(
#43
1(
#44
0(
#45
b0 O
b0 X
b0 l
0E
0o
b10011010100001 0
b10011010100001 $"
b10011010100001 \"
b10011010100001 >"
b10011010100001 H"
b10011101111111 1
b10011101111111 5
b10011101111111 n
b10011101111111 P
b10011101111111 Z
b10011010100001 #
b10011010100001 2
b1101100101011110 Y"
b0 _"
b1101111 ^"
b10011101111111 k
b100111 q
b10000 p
b110 "
b110 +
b110 -
b1101111 ^
b1101111 V
b1101111 C
b1101111 M"
b1101111 B"
b1101111 *"
b10011100010000 _
b10011100010000 T
b10011100010000 ;
b10011100010000 L"
b10011100010000 D"
b10011100010000 1"
1(
b1000 &
b1000 )
b1101111 %
b1101111 .
b1101111 4
b1101111 #"
b10011100010000 $
b10011100010000 ,
b10011100010000 3
b10011100010000 ""
#46
0(
#47
1(
#48
0(
#49
1(
#50
b1111111111111111 ="
b1111111111111111 F"
0/
b0 Z"
1b"
b11111111111111111111111111111110 0
b11111111111111111111111111111110 $"
b11111111111111111111111111111110 \"
b1111111111111110 >"
b1111111111111110 H"
b10 1
b10 5
b10 n
b10 P
b10 Z
13"
1]"
b1 #
b1 2
b1 Y"
b10 ^"
b10 k
b0 q
b0 p
b111 "
b111 +
b111 -
b10 ^
b10 V
b10 C
b10 M"
b10 B"
b10 *"
b0 _
b0 T
b0 ;
b0 L"
b0 D"
b0 1"
0(
b10 &
b10 )
b10 %
b10 .
b10 4
b10 #"
b0 $
b0 ,
b0 3
b0 ""
#51
1(
#52
0(
#53
1(
#54
0(
#55
b0 ="
b0 F"
1/
b1110 0
b1110 $"
b1110 \"
b1110 >"
b1110 H"
b1111111111111111 Z"
0b"
b10010 1
b10010 5
b10010 n
b10010 P
b10010 Z
b1111111111110001 Y"
03"
0]"
b100 #
b100 2
b10010 k
b10000 p
b11 "
b11 +
b11 -
b10000 _
b10000 T
b10000 ;
b10000 L"
b10000 D"
b10000 1"
1(
b101 &
b101 )
b10000 $
b10000 ,
b10000 3
b10000 ""
#56
0(
#57
1(
#58
0(
#59
1(
#60
b111 0
b111 $"
b111 \"
b111 >"
b111 H"
b1001 1
b1001 5
b1001 n
b1001 P
b1001 Z
b1111111111111000 Y"
b1 ^"
b1001 k
b1000 p
b100 "
b100 +
b100 -
b1 ^
b1 V
b1 C
b1 M"
b1 B"
b1 *"
b1000 _
b1000 T
b1000 ;
b1000 L"
b1000 D"
b1000 1"
0(
b1101 &
b1101 )
b1 %
b1 .
b1 4
b1 #"
b1000 $
b1000 ,
b1000 3
b1000 ""
#61
1(
#62
0(
#63
1(
#64
0(
#65
b0 0
b0 $"
b0 \"
b0 >"
b0 H"
b100 1
b100 5
b100 n
b100 P
b100 Z
b1111111111111111 Y"
b10 ^"
b100 k
b10 p
b101 "
b101 +
b101 -
b10 ^
b10 V
b10 C
b10 M"
b10 B"
b10 *"
b10 _
b10 T
b10 ;
b10 L"
b10 D"
b10 1"
b1000 #
b1000 2
1(
b1 &
b1 )
b10 %
b10 .
b10 4
b10 #"
b10 $
b10 ,
b10 3
b10 ""
#66
0(
#67
1(
#68
0(
#69
1(
#70
b1111111111111111 ="
b1111111111111111 F"
0/
b11111111111111111111111101010110 0
b11111111111111111111111101010110 $"
b11111111111111111111111101010110 \"
b1111111101010110 >"
b1111111101010110 H"
b0 Z"
1b"
b101010100 1
b101010100 5
b101010100 n
b101010100 P
b101010100 Z
b10101001 Y"
13"
1]"
b11111111 ^"
b101010100 k
b1010101 p
b1000 "
b1000 +
b1000 -
b11111111 ^
b11111111 V
b11111111 C
b11111111 M"
b11111111 B"
b11111111 *"
b1010101 _
b1010101 T
b1010101 ;
b1010101 L"
b1010101 D"
b1010101 1"
b10101010 #
b10101010 2
0(
b100 &
b100 )
b11111111 %
b11111111 .
b11111111 4
b11111111 #"
b1010101 $
b1010101 ,
b1010101 3
b1010101 ""
